[gd_scene load_steps=3 format=2]

[ext_resource path="res://blokoj/asteroidoj/resursoj/ast_4.glb" type="PackedScene" id=1]

[sub_resource type="ConcavePolygonShape" id=1]
data = PoolVector3Array( 4.844, 9.7256, -2.9535, 10.0245, 7.7191, -3.7818, 10.0276, 9.0551, -2.0653, 4.844, 9.7256, -2.9535, 3.9289, 12.9747, 1.1732, -0.066, 11.9503, -2.1573, -0.066, 11.9503, -2.1573, -3.3442, 12.3481, -1.2805, -4.159, 11.234, -3.1796, 3.9289, 12.9747, 1.1732, 4.844, 9.7256, -2.9535, 5.9573, 12.5769, 2.2383, -4.159, 11.234, -3.1796, -3.3442, 12.3481, -1.2805, -6.0138, 11.6231, -2.1226, -3.3442, 12.3481, -1.2805, -4.6011, 12.8971, 1.2184, -6.0138, 11.6231, -2.1226, -1.5109, 13.4939, 2.2537, 3.9289, 12.9747, 1.1732, 0.4295, 13.7234, 4.7778, -3.3442, 12.3481, -1.2805, -1.5109, 13.4939, 2.2537, -4.6011, 12.8971, 1.2184, -4.6011, 12.8971, 1.2184, -2.5244, 13.892, 5.8092, -5.0655, 12.6265, 3.6006, 0.4295, 13.7234, 4.7778, 5.9573, 12.5769, 2.2383, -0.0478, 13.4362, 6.8268, -2.5244, 13.892, 5.8092, 0.4295, 13.7234, 4.7778, -0.0478, 13.4362, 6.8268, -5.0655, 12.6265, 3.6006, -2.5244, 13.892, 5.8092, -5.2885, 12.0318, 5.5289, 6.2382, 6.8406, -6.2774, 10.0245, 7.7191, -3.7818, 4.844, 9.7256, -2.9535, 3.1395, 7.5114, -7.2149, 4.844, 9.7256, -2.9535, -2.0649, 9.3655, -5.7687, -2.0649, 9.3655, -5.7687, -0.066, 11.9503, -2.1573, -4.159, 11.234, -3.1796, -4.6011, 12.8971, 1.2184, -5.0655, 12.6265, 3.6006, -6.5706, 11.4315, 1.9752, -2.5244, 13.892, 5.8092, -2.7186, 12.2586, 8.8478, -3.9014, 11.9211, 7.2441, -0.0478, 13.4362, 6.8268, 5.9573, 12.5769, 2.2383, 2.4726, 11.5444, 7.4026, 5.9573, 12.5769, 2.2383, 5.9573, 12.5769, 2.2383, 2.4726, 11.5444, 7.4026, 5.9573, 12.5769, 2.2383, 10.0455, 9.8535, -0.1779, 5.9573, 12.5769, 2.2383, 7.6531, -5.6367, 9.3759, 3.3514, -2.3053, 12.645, 5.859, -1.2052, 10.4921, 4.4383, 2.4106, 10.2132, 5.859, -1.2052, 10.4921, 3.3514, -2.3053, 12.645, 2.6249, -5.5882, 12.7331, 5.7388, -7.7259, 9.551, 1.7304, -7.5956, 11.2392, 3.3514, -2.3053, 12.645, 2.6249, -5.5882, 12.7331, 0.2792, 0.1829, 13.3188, 0.2792, 0.1829, 13.3188, 2.6249, -5.5882, 12.7331, -1.9093, -5.8771, 12.5969, -0.7985, 5.1473, 12.3386, 0.2792, 0.1829, 13.3188, -3.6097, 5.8762, 12.6626, -5.1329, -4.7174, 12.3744, -6.6183, -3.5108, 11.6366, -3.6097, 5.8762, 12.6626, -2.7186, 12.2586, 8.8478, -1.8206, 11.171, 10.0154, -4.3214, 9.8813, 9.8904, -4.7327, -6.7339, 10.6121, -7.6122, -5.5952, 9.499, -5.1329, -4.7174, 12.3744, -5.1329, -4.7174, 12.3744, -8.9029, -4.8074, 8.3855, -6.6183, -3.5108, 11.6366, -3.6097, 5.8762, 12.6626, -8.3595, 0.9943, 8.4847, -6.174, 7.1036, 9.2699, -4.3214, 9.8813, 9.8904, -3.6097, 5.8762, 12.6626, -6.174, 7.1036, 9.2699, 6.0818, 6.1694, 7.0179, 6.8951, 3.2787, 8.3286, 4.4383, 2.4106, 10.2132, 7.8628, 10.1192, 3.4939, 6.0818, 6.1694, 7.0179, 3.931, 8.33, 8.4427, 7.8628, 10.1192, 3.4939, 3.931, 8.33, 8.4427, 2.4726, 11.5444, 7.4026, -6.174, 7.1036, 9.2699, -7.5266, 6.3288, 6.5392, -5.5035, 9.2236, 8.3195, -6.6183, -3.5108, 11.6366, -8.9029, -4.8074, 8.3855, -8.3595, 0.9943, 8.4847, -9.7705, 6.2266, 4.2039, -11.0383, 6.5744, -3.0254, -9.1385, 8.6884, 2.2332, -11.2412, -2.1953, 3.2772, -12.3016, -3.1995, -3.0667, -11.0383, 6.5744, -3.0254, -9.1385, 8.6884, 2.2332, -11.0383, 6.5744, -3.0254, -8.1782, 9.7511, -0.4377, -12.3016, -3.1995, -3.0667, -10.7572, -4.4655, -2.5351, -11.5459, -3.5934, -6.3468, -12.2304, 0.8338, -8.0743, -12.3016, -3.1995, -3.0667, -12.1047, -1.8277, -8.4488, -11.0383, 6.5744, -3.0254, -12.3016, -3.1995, -3.0667, -12.2304, 0.8338, -8.0743, -11.0383, 6.5744, -3.0254, -12.2304, 0.8338, -8.0743, -11.3628, 4.7478, -8.0587, -8.1329, 9.3272, -2.1266, -8.6562, 8.1261, -5.8682, -6.0138, 11.6231, -2.1226, -11.0383, 6.5744, -3.0254, -11.3628, 4.7478, -8.0587, -8.6562, 8.1261, -5.8682, -12.2304, 0.8338, -8.0743, -12.1047, -1.8277, -8.4488, -10.9297, -2.8058, -9.7291, -7.6122, -5.5952, 9.499, -11.1258, -4.5526, 3.0923, -8.9029, -4.8074, 8.3855, -7.4073, -6.2195, 7.6202, -11.0327, -4.779, 0.6187, -11.1258, -4.5526, 3.0923, -8.9029, -4.8074, 8.3855, -11.1258, -4.5526, 3.0923, -11.2412, -2.1953, 3.2772, -8.9029, -4.8074, 8.3855, -11.2412, -2.1953, 3.2772, -8.3595, 0.9943, 8.4847, -8.1924, 8.6047, 4.8875, -7.5266, 6.3288, 6.5392, -9.7705, 6.2266, 4.2039, -5.5035, 9.2236, 8.3195, -9.1385, 8.6884, 2.2332, -5.2885, 12.0318, 5.5289, -5.5035, 9.2236, 8.3195, -8.1924, 8.6047, 4.8875, -9.1385, 8.6884, 2.2332, -5.2885, 12.0318, 5.5289, -6.5706, 11.4315, 1.9752, -5.0655, 12.6265, 3.6006, -11.7618, 2.598, -9.8143, -10.7399, 0.8983, -12.3423, -9.5799, 5.9524, -9.3901, -10.9297, -2.8058, -9.7291, -8.7009, -3.7134, -9.9795, -9.8924, -1.1014, -11.1765, -10.9297, -2.8058, -9.7291, -11.5459, -3.5934, -6.3468, -8.7009, -3.7134, -9.9795, -11.5459, -3.5934, -6.3468, -10.7572, -4.4655, -2.5351, -8.7009, -3.7134, -9.9795, -10.7572, -4.4655, -2.5351, -7.5502, -5.1007, -2.7331, -8.7009, -3.7134, -9.9795, -11.0327, -4.779, 0.6187, -4.1226, -6.446, 3.1564, -7.5502, -5.1007, -2.7331, 6.0055, -8.2639, -8.4978, 1.1889, -6.6877, -10.3046, 2.7705, -6.7311, -4.7427, 8.0963, -8.1089, -8.196, 4.1472, -7.1842, -12.5615, 6.0055, -8.2639, -8.4978, 6.0055, -8.2639, -8.4978, 2.7705, -6.7311, -4.7427, 4.4769, -7.5043, -2.8469, -0.2973, -5.9591, -2.5724, -3.5016, -5.7232, -5.628, -7.5502, -5.1007, -2.7331, 2.7705, -6.7311, -4.7427, -3.5016, -5.7232, -5.628, -0.2973, -5.9591, -2.5724, 4.4769, -7.5043, -2.8469, 2.7705, -6.7311, -4.7427, 1.927, -7.7425, 3.642, 6.0055, -8.2639, -8.4978, 4.4769, -7.5043, -2.8469, 7.7329, -8.6658, -0.4901, -0.2973, -5.9591, -2.5724, -7.5502, -5.1007, -2.7331, -4.1226, -6.446, 3.1564, 1.927, -7.7425, 3.642, -0.2973, -5.9591, -2.5724, -1.189, -7.2561, 3.38, 4.4769, -7.5043, -2.8469, 1.927, -7.7425, 3.642, 7.7562, -8.8875, 1.5443, 7.7562, -8.8875, 1.5443, 1.927, -7.7425, 3.642, 5.9458, -8.9812, 5.0736, -4.1074, -4.6696, -12.8185, -8.7009, -3.7134, -9.9795, -6.6707, -4.7223, -8.4424, -0.7175, -5.5799, -13.9036, -4.1074, -4.6696, -12.8185, -3.5016, -5.7232, -5.628, 1.1889, -6.6877, -10.3046, -0.7175, -5.5799, -13.9036, -3.5016, -5.7232, -5.628, 4.1472, -7.1842, -12.5615, -0.7175, -5.5799, -13.9036, 1.1889, -6.6877, -10.3046, 6.0055, -8.2639, -8.4978, 7.7329, -8.6658, -0.4901, 8.0963, -8.1089, -8.196, 8.0963, -8.1089, -8.196, 7.7329, -8.6658, -0.4901, 9.2055, -8.6255, -1.3251, 7.7562, -8.8875, 1.5443, 5.9458, -8.9812, 5.0736, 7.9893, -9.0241, 3.732, 3.0391, -7.9381, 8.5703, -0.0201, -7.7691, 9.9492, 1.7304, -7.5956, 11.2392, -1.189, -7.2561, 3.38, -0.0201, -7.7691, 9.9492, 1.927, -7.7425, 3.642, -3.5016, -5.7232, -5.628, -6.6707, -4.7223, -8.4424, -7.5502, -5.1007, -2.7331, 8.0963, -8.1089, -8.196, 9.5865, -7.7956, -5.3704, 12.184, -1.5824, -10.5957, 10.6999, 2.4153, -9.9011, 11.3531, 0.1766, -11.2783, 12.9935, 0.2917, -6.9039, 12.0514, 3.7109, -7.6152, 10.6999, 2.4153, -9.9011, 12.9935, 0.2917, -6.9039, 12.184, -1.5824, -10.5957, 9.5865, -7.7956, -5.3704, 13.2194, -1.4947, -5.1571, 12.184, -1.5824, -10.5957, 13.2194, -1.4947, -5.1571, 12.9935, 0.2917, -6.9039, 12.3882, 7.8098, -1.8931, 13.8331, 5.4157, -5.1734, 14.2067, 5.4204, -3.7274, 13.2194, -1.4947, -5.1571, 10.3441, -7.2857, -1.9883, 13.0566, -0.3886, -2.1046, 14.2387, 3.2184, -5.859, 13.0566, -0.3886, -2.1046, 14.2067, 5.4204, -3.7274, 12.3882, 7.8098, -1.8931, 14.2067, 5.4204, -3.7274, 11.1348, 5.7003, 0.6265, 10.3441, -7.2857, -1.9883, 9.2055, -8.6255, -1.3251, 7.9893, -9.0241, 3.732, 8.8283, -8.2761, 3.702, 10.3441, -7.2857, -1.9883, 7.9893, -9.0241, 3.732, 13.0566, -0.3886, -2.1046, 9.0802, -1.7256, 6.462, 10.3471, 3.1724, 2.5894, 8.9863, 7.0871, 3.4036, 10.3471, 3.1724, 2.5894, 9.5076, 3.8004, 4.4766, 9.0802, -1.7256, 6.462, 8.8283, -8.2761, 3.702, 7.6531, -5.6367, 9.3759, 6.642, -5.9749, -12.9047, 8.0963, -8.1089, -8.196, 12.184, -1.5824, -10.5957, 6.7264, -3.9592, -14.2464, 6.642, -5.9749, -12.9047, 12.184, -1.5824, -10.5957, 9.4968, -0.4669, -12.8107, 6.7264, -3.9592, -14.2464, 12.184, -1.5824, -10.5957, 11.3531, 0.1766, -11.2783, 9.4968, -0.4669, -12.8107, 12.184, -1.5824, -10.5957, 5.9573, 12.5769, 2.2383, 10.0455, 9.8535, -0.1779, 7.8628, 10.1192, 3.4939, 8.9863, 7.0871, 3.4036, 6.0818, 6.1694, 7.0179, 7.8628, 10.1192, 3.4939, 7.6531, -5.6367, 9.3759, 7.0705, -8.995, 6.6969, 5.7388, -7.7259, 9.551, 8.8283, -8.2761, 3.702, 7.9893, -9.0241, 3.732, 7.0705, -8.995, 6.6969, 9.2055, -8.6255, -1.3251, 7.7329, -8.6658, -0.4901, 7.7562, -8.8875, 1.5443, 9.5865, -7.7956, -5.3704, 9.2055, -8.6255, -1.3251, 10.3441, -7.2857, -1.9883, -10.7399, 0.8983, -12.3423, -9.2466, 0.744, -13.7862, -8.2706, 3.196, -12.4552, -7.5305, -2.7579, -13.7988, -0.7175, -5.5799, -13.9036, -4.5354, -2.2948, -15.5947, -9.2466, 0.744, -13.7862, -4.5354, -2.2948, -15.5947, -4.3464, 1.002, -15.1634, -0.2791, 4.0895, -12.7746, -4.3464, 1.002, -15.1634, 1.7787, 1.1994, -15.0945, -2.5977, 5.1458, -11.8751, -4.3464, 1.002, -15.1634, -0.2791, 4.0895, -12.7746, 1.7787, 1.1994, -15.0945, -4.5354, -2.2948, -15.5947, 4.0714, -1.5822, -15.4899, 2.9955, 5.8487, -9.3985, 1.7787, 1.1994, -15.0945, 5.9486, 4.5491, -9.7028, -0.2791, 4.0895, -12.7746, 2.9955, 5.8487, -9.3985, -1.8295, 6.7977, -9.7351, -1.8295, 6.7977, -9.7351, 2.9955, 5.8487, -9.3985, -1.8295, 6.7977, -9.7351, 4.0714, -1.5822, -15.4899, 0.9104, -4.8899, -14.9728, 6.7264, -3.9592, -14.2464, 5.4838, 2.1075, -13.2895, 4.0714, -1.5822, -15.4899, 9.4968, -0.4669, -12.8107, 2.9955, 5.8487, -9.3985, 5.9486, 4.5491, -9.7028, 6.2382, 6.8406, -6.2774, 3.1395, 7.5114, -7.2149, -1.8295, 6.7977, -9.7351, 2.9955, 5.8487, -9.3985, 5.9486, 4.5491, -9.7028, 5.4838, 2.1075, -13.2895, 10.6999, 2.4153, -9.9011, -6.8637, 7.132, -9.7154, -9.5799, 5.9524, -9.3901, -5.5491, 3.7214, -11.9075, -6.6978, 8.3615, -7.6239, -6.8637, 7.132, -9.7154, -4.6487, 8.1938, -9.0906, -2.0649, 9.3655, -5.7687, -4.6487, 8.1938, -9.0906, -1.8295, 6.7977, -9.7351, -2.0649, 9.3655, -5.7687, -1.8295, 6.7977, -9.7351, 3.1395, 7.5114, -7.2149, 4.844, 9.7256, -2.9535, 3.1395, 7.5114, -7.2149, 6.2382, 6.8406, -6.2774, 5.9486, 4.5491, -9.7028, 10.6999, 2.4153, -9.9011, 10.2703, 6.1718, -6.2613, 10.6999, 2.4153, -9.9011, 9.4968, -0.4669, -12.8107, 11.3531, 0.1766, -11.2783, -0.7175, -5.5799, -13.9036, 4.1472, -7.1842, -12.5615, 0.9104, -4.8899, -14.9728, 4.844, 9.7256, -2.9535, -0.066, 11.9503, -2.1573, -2.0649, 9.3655, -5.7687, -1.8206, 11.171, 10.0154, 3.931, 8.33, 8.4427, 1.7253, 6.3447, 11.3306, -1.8206, 11.171, 10.0154, 2.4726, 11.5444, 7.4026, 3.931, 8.33, 8.4427, -2.0649, 9.3655, -5.7687, -4.159, 11.234, -3.1796, -5.2886, 9.7235, -5.6831, 4.844, 9.7256, -2.9535, 10.0276, 9.0551, -2.0653, 5.9573, 12.5769, 2.2383, -0.066, 11.9503, -2.1573, 3.9289, 12.9747, 1.1732, -3.3442, 12.3481, -1.2805, -3.3442, 12.3481, -1.2805, 3.9289, 12.9747, 1.1732, -1.5109, 13.4939, 2.2537, 3.9289, 12.9747, 1.1732, 5.9573, 12.5769, 2.2383, 0.4295, 13.7234, 4.7778, -1.5109, 13.4939, 2.2537, 0.4295, 13.7234, 4.7778, -2.5244, 13.892, 5.8092, -1.5109, 13.4939, 2.2537, -2.5244, 13.892, 5.8092, -4.6011, 12.8971, 1.2184, 10.2703, 6.1718, -6.2613, 10.0245, 7.7191, -3.7818, 6.2382, 6.8406, -6.2774, -2.0649, 9.3655, -5.7687, -5.2886, 9.7235, -5.6831, -4.6487, 8.1938, -9.0906, -4.6487, 8.1938, -9.0906, -5.2886, 9.7235, -5.6831, -6.6978, 8.3615, -7.6239, -4.159, 11.234, -3.1796, -6.0138, 11.6231, -2.1226, -5.2886, 9.7235, -5.6831, -6.0138, 11.6231, -2.1226, -6.5706, 11.4315, 1.9752, -8.1782, 9.7511, -0.4377, -4.6011, 12.8971, 1.2184, -6.5706, 11.4315, 1.9752, -6.0138, 11.6231, -2.1226, -2.5244, 13.892, 5.8092, -3.9014, 11.9211, 7.2441, -5.2885, 12.0318, 5.5289, -2.5244, 13.892, 5.8092, -0.0478, 13.4362, 6.8268, -2.7186, 12.2586, 8.8478, 10.0276, 9.0551, -2.0653, 10.0455, 9.8535, -0.1779, 5.9573, 12.5769, 2.2383, 7.6531, -5.6367, 9.3759, 2.6249, -5.5882, 12.7331, 3.3514, -2.3053, 12.645, 3.931, 8.33, 8.4427, 4.4383, 2.4106, 10.2132, 1.7253, 6.3447, 11.3306, 5.7388, -7.7259, 9.551, 3.0391, -7.9381, 8.5703, 1.7304, -7.5956, 11.2392, 4.4383, 2.4106, 10.2132, 3.3514, -2.3053, 12.645, 0.2792, 0.1829, 13.3188, 4.4383, 2.4106, 10.2132, 0.2792, 0.1829, 13.3188, 1.7253, 6.3447, 11.3306, 1.7253, 6.3447, 11.3306, 0.2792, 0.1829, 13.3188, -0.7985, 5.1473, 12.3386, -5.1329, -4.7174, 12.3744, 0.2792, 0.1829, 13.3188, -1.9093, -5.8771, 12.5969, -3.6097, 5.8762, 12.6626, 0.2792, 0.1829, 13.3188, -5.1329, -4.7174, 12.3744, 2.6249, -5.5882, 12.7331, 1.7304, -7.5956, 11.2392, -1.9093, -5.8771, 12.5969, 1.7304, -7.5956, 11.2392, -0.0201, -7.7691, 9.9492, -1.9093, -5.8771, 12.5969, 1.7253, 6.3447, 11.3306, -0.7985, 5.1473, 12.3386, -1.8206, 11.171, 10.0154, -1.9093, -5.8771, 12.5969, -0.0201, -7.7691, 9.9492, -4.7327, -6.7339, 10.6121, -9.8924, -1.1014, -11.1765, -12.2304, 0.8338, -8.0743, -10.9297, -2.8058, -9.7291, -11.7618, 2.598, -9.8143, -12.2304, 0.8338, -8.0743, -9.8924, -1.1014, -11.1765, -0.7985, 5.1473, 12.3386, -3.6097, 5.8762, 12.6626, -1.8206, 11.171, 10.0154, -1.9093, -5.8771, 12.5969, -4.7327, -6.7339, 10.6121, -5.1329, -4.7174, 12.3744, -3.6097, 5.8762, 12.6626, -4.3214, 9.8813, 9.8904, -1.8206, 11.171, 10.0154, -7.6122, -5.5952, 9.499, -8.9029, -4.8074, 8.3855, -5.1329, -4.7174, 12.3744, -6.6183, -3.5108, 11.6366, -8.3595, 0.9943, 8.4847, -3.6097, 5.8762, 12.6626, 7.0705, -8.995, 6.6969, 3.0391, -7.9381, 8.5703, 5.7388, -7.7259, 9.551, 7.6531, -5.6367, 9.3759, 5.7388, -7.7259, 9.551, 2.6249, -5.5882, 12.7331, 7.6531, -5.6367, 9.3759, 5.859, -1.2052, 10.4921, 6.8951, 3.2787, 8.3286, 6.8951, 3.2787, 8.3286, 5.859, -1.2052, 10.4921, 4.4383, 2.4106, 10.2132, 6.0818, 6.1694, 7.0179, 4.4383, 2.4106, 10.2132, 3.931, 8.33, 8.4427, -1.8206, 11.171, 10.0154, -0.0478, 13.4362, 6.8268, 2.4726, 11.5444, 7.4026, -1.8206, 11.171, 10.0154, -2.7186, 12.2586, 8.8478, -0.0478, 13.4362, 6.8268, -2.7186, 12.2586, 8.8478, -4.3214, 9.8813, 9.8904, -3.9014, 11.9211, 7.2441, -4.3214, 9.8813, 9.8904, -5.5035, 9.2236, 8.3195, -3.9014, 11.9211, 7.2441, -6.174, 7.1036, 9.2699, -5.5035, 9.2236, 8.3195, -4.3214, 9.8813, 9.8904, -8.3595, 0.9943, 8.4847, -7.5266, 6.3288, 6.5392, -6.174, 7.1036, 9.2699, -4.7327, -6.7339, 10.6121, -7.4073, -6.2195, 7.6202, -7.6122, -5.5952, 9.499, -0.0201, -7.7691, 9.9492, -1.189, -7.2561, 3.38, -4.7327, -6.7339, 10.6121, -9.7705, 6.2266, 4.2039, -9.1385, 8.6884, 2.2332, -8.1924, 8.6047, 4.8875, -9.1385, 8.6884, 2.2332, -6.5706, 11.4315, 1.9752, -5.2885, 12.0318, 5.5289, -11.0327, -4.779, 0.6187, -10.7572, -4.4655, -2.5351, -12.3016, -3.1995, -3.0667, -11.1258, -4.5526, 3.0923, -12.3016, -3.1995, -3.0667, -11.2412, -2.1953, 3.2772, -11.0327, -4.779, 0.6187, -12.3016, -3.1995, -3.0667, -11.1258, -4.5526, 3.0923, -11.2412, -2.1953, 3.2772, -11.0383, 6.5744, -3.0254, -9.7705, 6.2266, 4.2039, -9.1385, 8.6884, 2.2332, -8.1782, 9.7511, -0.4377, -6.5706, 11.4315, 1.9752, -12.3016, -3.1995, -3.0667, -11.5459, -3.5934, -6.3468, -12.1047, -1.8277, -8.4488, -11.0383, 6.5744, -3.0254, -8.1329, 9.3272, -2.1266, -8.1782, 9.7511, -0.4377, -11.0383, 6.5744, -3.0254, -8.6562, 8.1261, -5.8682, -8.1329, 9.3272, -2.1266, -11.5459, -3.5934, -6.3468, -10.9297, -2.8058, -9.7291, -12.1047, -1.8277, -8.4488, -11.3628, 4.7478, -8.0587, -12.2304, 0.8338, -8.0743, -11.7618, 2.598, -9.8143, -9.7705, 6.2266, 4.2039, -8.3595, 0.9943, 8.4847, -11.2412, -2.1953, 3.2772, -9.7705, 6.2266, 4.2039, -7.5266, 6.3288, 6.5392, -8.3595, 0.9943, 8.4847, -11.3628, 4.7478, -8.0587, -9.5799, 5.9524, -9.3901, -8.6562, 8.1261, -5.8682, -9.5799, 5.9524, -9.3901, -6.6978, 8.3615, -7.6239, -8.6562, 8.1261, -5.8682, -7.4073, -6.2195, 7.6202, -4.1226, -6.446, 3.1564, -11.0327, -4.779, 0.6187, -7.4073, -6.2195, 7.6202, -11.1258, -4.5526, 3.0923, -7.6122, -5.5952, 9.499, -6.6978, 8.3615, -7.6239, -6.0138, 11.6231, -2.1226, -8.6562, 8.1261, -5.8682, -5.2886, 9.7235, -5.6831, -6.0138, 11.6231, -2.1226, -6.6978, 8.3615, -7.6239, -7.5266, 6.3288, 6.5392, -8.1924, 8.6047, 4.8875, -5.5035, 9.2236, 8.3195, -3.9014, 11.9211, 7.2441, -5.5035, 9.2236, 8.3195, -5.2885, 12.0318, 5.5289, -8.1329, 9.3272, -2.1266, -6.0138, 11.6231, -2.1226, -8.1782, 9.7511, -0.4377, -5.5491, 3.7214, -11.9075, -9.2466, 0.744, -13.7862, -4.3464, 1.002, -15.1634, -5.5491, 3.7214, -11.9075, -8.2706, 3.196, -12.4552, -9.2466, 0.744, -13.7862, -11.7618, 2.598, -9.8143, -9.5799, 5.9524, -9.3901, -11.3628, 4.7478, -8.0587, -11.7618, 2.598, -9.8143, -9.8924, -1.1014, -11.1765, -10.7399, 0.8983, -12.3423, -11.0327, -4.779, 0.6187, -7.5502, -5.1007, -2.7331, -10.7572, -4.4655, -2.5351, -4.1074, -4.6696, -12.8185, -6.6707, -4.7223, -8.4424, -3.5016, -5.7232, -5.628, 1.1889, -6.6877, -10.3046, -3.5016, -5.7232, -5.628, 2.7705, -6.7311, -4.7427, 2.7705, -6.7311, -4.7427, -0.2973, -5.9591, -2.5724, 1.927, -7.7425, 3.642, 4.4769, -7.5043, -2.8469, 7.7562, -8.8875, 1.5443, 7.7329, -8.6658, -0.4901, -0.2973, -5.9591, -2.5724, -4.1226, -6.446, 3.1564, -1.189, -7.2561, 3.38, 4.1472, -7.1842, -12.5615, 1.1889, -6.6877, -10.3046, 6.0055, -8.2639, -8.4978, 6.642, -5.9749, -12.9047, 4.1472, -7.1842, -12.5615, 8.0963, -8.1089, -8.196, 8.0963, -8.1089, -8.196, 9.2055, -8.6255, -1.3251, 9.5865, -7.7956, -5.3704, 5.9458, -8.9812, 5.0736, 7.0705, -8.995, 6.6969, 7.9893, -9.0241, 3.732, 5.9458, -8.9812, 5.0736, 3.0391, -7.9381, 8.5703, 7.0705, -8.995, 6.6969, 1.927, -7.7425, 3.642, 3.0391, -7.9381, 8.5703, 5.9458, -8.9812, 5.0736, 1.927, -7.7425, 3.642, -0.0201, -7.7691, 9.9492, 3.0391, -7.9381, 8.5703, -4.1226, -6.446, 3.1564, -7.4073, -6.2195, 7.6202, -1.189, -7.2561, 3.38, -1.189, -7.2561, 3.38, -7.4073, -6.2195, 7.6202, -4.7327, -6.7339, 10.6121, -6.6707, -4.7223, -8.4424, -8.7009, -3.7134, -9.9795, -7.5502, -5.1007, -2.7331, 11.3531, 0.1766, -11.2783, 12.184, -1.5824, -10.5957, 12.9935, 0.2917, -6.9039, 12.0514, 3.7109, -7.6152, 12.9935, 0.2917, -6.9039, 14.2387, 3.2184, -5.859, 12.0514, 3.7109, -7.6152, 14.2387, 3.2184, -5.859, 13.8331, 5.4157, -5.1734, 10.0245, 7.7191, -3.7818, 13.8331, 5.4157, -5.1734, 12.3882, 7.8098, -1.8931, 12.9935, 0.2917, -6.9039, 13.2194, -1.4947, -5.1571, 14.2387, 3.2184, -5.859, 13.8331, 5.4157, -5.1734, 14.2387, 3.2184, -5.859, 14.2067, 5.4204, -3.7274, 10.0245, 7.7191, -3.7818, 12.3882, 7.8098, -1.8931, 10.0276, 9.0551, -2.0653, 9.5865, -7.7956, -5.3704, 10.3441, -7.2857, -1.9883, 13.2194, -1.4947, -5.1571, 10.3441, -7.2857, -1.9883, 8.8283, -8.2761, 3.702, 13.0566, -0.3886, -2.1046, 13.2194, -1.4947, -5.1571, 13.0566, -0.3886, -2.1046, 14.2387, 3.2184, -5.859, 13.0566, -0.3886, -2.1046, 10.3471, 3.1724, 2.5894, 14.2067, 5.4204, -3.7274, 14.2067, 5.4204, -3.7274, 10.3471, 3.1724, 2.5894, 11.1348, 5.7003, 0.6265, 11.1348, 5.7003, 0.6265, 10.3471, 3.1724, 2.5894, 8.9863, 7.0871, 3.4036, 12.3882, 7.8098, -1.8931, 11.1348, 5.7003, 0.6265, 10.0455, 9.8535, -0.1779, 10.0455, 9.8535, -0.1779, 8.9863, 7.0871, 3.4036, 7.8628, 10.1192, 3.4939, 11.1348, 5.7003, 0.6265, 8.9863, 7.0871, 3.4036, 10.0455, 9.8535, -0.1779, 8.8283, -8.2761, 3.702, 9.0802, -1.7256, 6.462, 13.0566, -0.3886, -2.1046, 9.0802, -1.7256, 6.462, 9.5076, 3.8004, 4.4766, 10.3471, 3.1724, 2.5894, 8.8283, -8.2761, 3.702, 7.0705, -8.995, 6.6969, 7.6531, -5.6367, 9.3759, 9.0802, -1.7256, 6.462, 6.8951, 3.2787, 8.3286, 9.5076, 3.8004, 4.4766, 9.5076, 3.8004, 4.4766, 6.8951, 3.2787, 8.3286, 8.9863, 7.0871, 3.4036, 10.2703, 6.1718, -6.2613, 12.0514, 3.7109, -7.6152, 13.8331, 5.4157, -5.1734, 13.8331, 5.4157, -5.1734, 10.0245, 7.7191, -3.7818, 10.2703, 6.1718, -6.2613, 10.0276, 9.0551, -2.0653, 12.3882, 7.8098, -1.8931, 10.0455, 9.8535, -0.1779, 5.9573, 12.5769, 2.2383, 7.8628, 10.1192, 3.4939, 2.4726, 11.5444, 7.4026, 8.9863, 7.0871, 3.4036, 6.8951, 3.2787, 8.3286, 6.0818, 6.1694, 7.0179, 9.0802, -1.7256, 6.462, 7.6531, -5.6367, 9.3759, 6.8951, 3.2787, 8.3286, 9.2055, -8.6255, -1.3251, 7.7562, -8.8875, 1.5443, 7.9893, -9.0241, 3.732, -7.5305, -2.7579, -13.7988, -4.5354, -2.2948, -15.5947, -9.2466, 0.744, -13.7862, -6.8637, 7.132, -9.7154, -2.5977, 5.1458, -11.8751, -4.6487, 8.1938, -9.0906, -9.2466, 0.744, -13.7862, -9.8924, -1.1014, -11.1765, -7.5305, -2.7579, -13.7988, -9.2466, 0.744, -13.7862, -10.7399, 0.8983, -12.3423, -9.8924, -1.1014, -11.1765, -5.5491, 3.7214, -11.9075, -4.3464, 1.002, -15.1634, -2.5977, 5.1458, -11.8751, -6.8637, 7.132, -9.7154, -5.5491, 3.7214, -11.9075, -2.5977, 5.1458, -11.8751, -4.6487, 8.1938, -9.0906, -2.5977, 5.1458, -11.8751, -1.8295, 6.7977, -9.7351, -0.7175, -5.5799, -13.9036, 0.9104, -4.8899, -14.9728, -4.5354, -2.2948, -15.5947, -4.3464, 1.002, -15.1634, -4.5354, -2.2948, -15.5947, 1.7787, 1.1994, -15.0945, -2.5977, 5.1458, -11.8751, -0.2791, 4.0895, -12.7746, -1.8295, 6.7977, -9.7351, -1.8295, 6.7977, -9.7351, -1.8295, 6.7977, -9.7351, 3.1395, 7.5114, -7.2149, -4.5354, -2.2948, -15.5947, 0.9104, -4.8899, -14.9728, 4.0714, -1.5822, -15.4899, 1.7787, 1.1994, -15.0945, 5.4838, 2.1075, -13.2895, 5.9486, 4.5491, -9.7028, -0.2791, 4.0895, -12.7746, 1.7787, 1.1994, -15.0945, 2.9955, 5.8487, -9.3985, 1.7787, 1.1994, -15.0945, 4.0714, -1.5822, -15.4899, 5.4838, 2.1075, -13.2895, 4.0714, -1.5822, -15.4899, 6.7264, -3.9592, -14.2464, 9.4968, -0.4669, -12.8107, 2.9955, 5.8487, -9.3985, 6.2382, 6.8406, -6.2774, 3.1395, 7.5114, -7.2149, 5.4838, 2.1075, -13.2895, 9.4968, -0.4669, -12.8107, 10.6999, 2.4153, -9.9011, -8.7009, -3.7134, -9.9795, -7.5305, -2.7579, -13.7988, -9.8924, -1.1014, -11.1765, 6.642, -5.9749, -12.9047, 0.9104, -4.8899, -14.9728, 4.1472, -7.1842, -12.5615, 6.7264, -3.9592, -14.2464, 0.9104, -4.8899, -14.9728, 6.642, -5.9749, -12.9047, -10.7399, 0.8983, -12.3423, -8.2706, 3.196, -12.4552, -9.5799, 5.9524, -9.3901, -8.2706, 3.196, -12.4552, -5.5491, 3.7214, -11.9075, -9.5799, 5.9524, -9.3901, -9.5799, 5.9524, -9.3901, -6.8637, 7.132, -9.7154, -6.6978, 8.3615, -7.6239, 5.9486, 4.5491, -9.7028, 10.2703, 6.1718, -6.2613, 6.2382, 6.8406, -6.2774, 10.2703, 6.1718, -6.2613, 10.6999, 2.4153, -9.9011, 12.0514, 3.7109, -7.6152, -4.1074, -4.6696, -12.8185, -0.7175, -5.5799, -13.9036, -7.5305, -2.7579, -13.7988, -8.7009, -3.7134, -9.9795, -4.1074, -4.6696, -12.8185, -7.5305, -2.7579, -13.7988 )

[node name="ast_4" instance=ExtResource( 1 )]

[node name="StaticBody" type="StaticBody" parent="ast_4" index="0"]

[node name="CollisionShape" type="CollisionShape" parent="ast_4/StaticBody" index="0"]
shape = SubResource( 1 )
